{
  "arch": "x86_64", 
  "build": "py27_0", 
  "build_number": 0, 
  "channel": "https://repo.continuum.io/pkgs/free/linux-64/", 
  "date": "2015-12-22", 
  "depends": [
    "python 2.7*"
  ], 
  "files": [
    "lib/python2.7/site-packages/decorator-4.0.6-py2.7.egg-info/PKG-INFO", 
    "lib/python2.7/site-packages/decorator-4.0.6-py2.7.egg-info/SOURCES.txt", 
    "lib/python2.7/site-packages/decorator-4.0.6-py2.7.egg-info/dependency_links.txt", 
    "lib/python2.7/site-packages/decorator-4.0.6-py2.7.egg-info/not-zip-safe", 
    "lib/python2.7/site-packages/decorator-4.0.6-py2.7.egg-info/top_level.txt", 
    "lib/python2.7/site-packages/decorator.py", 
    "lib/python2.7/site-packages/decorator.pyc"
  ], 
  "license": "BSD", 
  "link": {
    "source": "/ampa/stephanie/miniconda2/pkgs/decorator-4.0.6-py27_0", 
    "type": "hard-link"
  }, 
  "md5": "ec13f924fa1452892e48d67b9d19e962", 
  "name": "decorator", 
  "platform": "linux", 
  "requires": [], 
  "size": 11125, 
  "subdir": "linux-64", 
  "url": "https://repo.continuum.io/pkgs/free/linux-64/decorator-4.0.6-py27_0.tar.bz2", 
  "version": "4.0.6"
}