{
  "arch": "x86_64", 
  "binstar": {
    "channel": "ubuntu1404", 
    "owner_id": "553ff7ef3273af233da8e428", 
    "package_id": "554aa5b73273af44d6ed28a6"
  }, 
  "build": "np110py27_0", 
  "build_number": 0, 
  "channel": "https://conda.binstar.org/neurokernel/channel/ubuntu1404/linux-64/", 
  "depends": [
    "msgpack-python >=0.3.0", 
    "numpy", 
    "python 2.7*"
  ], 
  "files": [
    "lib/python2.7/site-packages/msgpack_numpy-0.3.6-py2.7.egg", 
    "lib/python2.7/site-packages/msgpack_numpy.pth"
  ], 
  "license": "BSD License", 
  "link": {
    "source": "/ampa/stephanie/miniconda2/pkgs/msgpack-numpy-0.3.6-np110py27_0", 
    "type": "hard-link"
  }, 
  "machine": "x86_64", 
  "md5": "90d78280fab1a0a581a8f27d11d5705e", 
  "name": "msgpack-numpy", 
  "operatingsystem": "linux", 
  "platform": "linux", 
  "requires": [], 
  "size": 8765, 
  "subdir": "linux-64", 
  "target-triplet": "x86_64-any-linux", 
  "url": "https://conda.binstar.org/neurokernel/channel/ubuntu1404/linux-64/msgpack-numpy-0.3.6-np110py27_0.tar.bz2", 
  "version": "0.3.6"
}