{
  "arch": "x86_64", 
  "build": "py27_0", 
  "build_number": 0, 
  "channel": "https://repo.continuum.io/pkgs/free/linux-64/", 
  "date": "2016-01-18", 
  "depends": [
    "python 2.7*"
  ], 
  "files": [
    "lib/python2.7/site-packages/py-1.4.31-py2.7.egg-info/PKG-INFO", 
    "lib/python2.7/site-packages/py-1.4.31-py2.7.egg-info/SOURCES.txt", 
    "lib/python2.7/site-packages/py-1.4.31-py2.7.egg-info/dependency_links.txt", 
    "lib/python2.7/site-packages/py-1.4.31-py2.7.egg-info/not-zip-safe", 
    "lib/python2.7/site-packages/py-1.4.31-py2.7.egg-info/top_level.txt", 
    "lib/python2.7/site-packages/py/__init__.py", 
    "lib/python2.7/site-packages/py/__init__.pyc", 
    "lib/python2.7/site-packages/py/__metainfo.py", 
    "lib/python2.7/site-packages/py/__metainfo.pyc", 
    "lib/python2.7/site-packages/py/_apipkg.py", 
    "lib/python2.7/site-packages/py/_apipkg.pyc", 
    "lib/python2.7/site-packages/py/_builtin.py", 
    "lib/python2.7/site-packages/py/_builtin.pyc", 
    "lib/python2.7/site-packages/py/_code/__init__.py", 
    "lib/python2.7/site-packages/py/_code/__init__.pyc", 
    "lib/python2.7/site-packages/py/_code/_assertionnew.py", 
    "lib/python2.7/site-packages/py/_code/_assertionnew.pyc", 
    "lib/python2.7/site-packages/py/_code/_assertionold.py", 
    "lib/python2.7/site-packages/py/_code/_assertionold.pyc", 
    "lib/python2.7/site-packages/py/_code/_py2traceback.py", 
    "lib/python2.7/site-packages/py/_code/_py2traceback.pyc", 
    "lib/python2.7/site-packages/py/_code/assertion.py", 
    "lib/python2.7/site-packages/py/_code/assertion.pyc", 
    "lib/python2.7/site-packages/py/_code/code.py", 
    "lib/python2.7/site-packages/py/_code/code.pyc", 
    "lib/python2.7/site-packages/py/_code/source.py", 
    "lib/python2.7/site-packages/py/_code/source.pyc", 
    "lib/python2.7/site-packages/py/_error.py", 
    "lib/python2.7/site-packages/py/_error.pyc", 
    "lib/python2.7/site-packages/py/_iniconfig.py", 
    "lib/python2.7/site-packages/py/_iniconfig.pyc", 
    "lib/python2.7/site-packages/py/_io/__init__.py", 
    "lib/python2.7/site-packages/py/_io/__init__.pyc", 
    "lib/python2.7/site-packages/py/_io/capture.py", 
    "lib/python2.7/site-packages/py/_io/capture.pyc", 
    "lib/python2.7/site-packages/py/_io/saferepr.py", 
    "lib/python2.7/site-packages/py/_io/saferepr.pyc", 
    "lib/python2.7/site-packages/py/_io/terminalwriter.py", 
    "lib/python2.7/site-packages/py/_io/terminalwriter.pyc", 
    "lib/python2.7/site-packages/py/_log/__init__.py", 
    "lib/python2.7/site-packages/py/_log/__init__.pyc", 
    "lib/python2.7/site-packages/py/_log/log.py", 
    "lib/python2.7/site-packages/py/_log/log.pyc", 
    "lib/python2.7/site-packages/py/_log/warning.py", 
    "lib/python2.7/site-packages/py/_log/warning.pyc", 
    "lib/python2.7/site-packages/py/_path/__init__.py", 
    "lib/python2.7/site-packages/py/_path/__init__.pyc", 
    "lib/python2.7/site-packages/py/_path/cacheutil.py", 
    "lib/python2.7/site-packages/py/_path/cacheutil.pyc", 
    "lib/python2.7/site-packages/py/_path/common.py", 
    "lib/python2.7/site-packages/py/_path/common.pyc", 
    "lib/python2.7/site-packages/py/_path/local.py", 
    "lib/python2.7/site-packages/py/_path/local.pyc", 
    "lib/python2.7/site-packages/py/_path/svnurl.py", 
    "lib/python2.7/site-packages/py/_path/svnurl.pyc", 
    "lib/python2.7/site-packages/py/_path/svnwc.py", 
    "lib/python2.7/site-packages/py/_path/svnwc.pyc", 
    "lib/python2.7/site-packages/py/_process/__init__.py", 
    "lib/python2.7/site-packages/py/_process/__init__.pyc", 
    "lib/python2.7/site-packages/py/_process/cmdexec.py", 
    "lib/python2.7/site-packages/py/_process/cmdexec.pyc", 
    "lib/python2.7/site-packages/py/_process/forkedfunc.py", 
    "lib/python2.7/site-packages/py/_process/forkedfunc.pyc", 
    "lib/python2.7/site-packages/py/_process/killproc.py", 
    "lib/python2.7/site-packages/py/_process/killproc.pyc", 
    "lib/python2.7/site-packages/py/_std.py", 
    "lib/python2.7/site-packages/py/_std.pyc", 
    "lib/python2.7/site-packages/py/_xmlgen.py", 
    "lib/python2.7/site-packages/py/_xmlgen.pyc", 
    "lib/python2.7/site-packages/py/test.py", 
    "lib/python2.7/site-packages/py/test.pyc"
  ], 
  "license": "MIT", 
  "link": {
    "source": "/ampa/stephanie/miniconda2/pkgs/py-1.4.31-py27_0", 
    "type": "hard-link"
  }, 
  "md5": "dea3d93be766654470ef77cd78ffa109", 
  "name": "py", 
  "platform": "linux", 
  "requires": [], 
  "size": 125559, 
  "subdir": "linux-64", 
  "url": "https://repo.continuum.io/pkgs/free/linux-64/py-1.4.31-py27_0.tar.bz2", 
  "version": "1.4.31"
}