{
  "arch": "x86_64", 
  "build": "np110py27_0", 
  "build_number": 0, 
  "channel": "https://repo.continuum.io/pkgs/free/linux-64/", 
  "date": "2015-10-06", 
  "depends": [
    "hdf5 1.8.15.1", 
    "numexpr 2.4*", 
    "numpy 1.10*", 
    "python 2.7*", 
    "setuptools", 
    "zlib 1.2*"
  ], 
  "files": [
    "bin/pt2to3", 
    "bin/ptdump", 
    "bin/ptrepack", 
    "bin/pttree", 
    "lib/python2.7/site-packages/tables-3.2.2-py2.7-linux-x86_64.egg-info/PKG-INFO", 
    "lib/python2.7/site-packages/tables-3.2.2-py2.7-linux-x86_64.egg-info/SOURCES.txt", 
    "lib/python2.7/site-packages/tables-3.2.2-py2.7-linux-x86_64.egg-info/dependency_links.txt", 
    "lib/python2.7/site-packages/tables-3.2.2-py2.7-linux-x86_64.egg-info/entry_points.txt", 
    "lib/python2.7/site-packages/tables-3.2.2-py2.7-linux-x86_64.egg-info/native_libs.txt", 
    "lib/python2.7/site-packages/tables-3.2.2-py2.7-linux-x86_64.egg-info/not-zip-safe", 
    "lib/python2.7/site-packages/tables-3.2.2-py2.7-linux-x86_64.egg-info/requires.txt", 
    "lib/python2.7/site-packages/tables-3.2.2-py2.7-linux-x86_64.egg-info/top_level.txt", 
    "lib/python2.7/site-packages/tables/__init__.py", 
    "lib/python2.7/site-packages/tables/__init__.pyc", 
    "lib/python2.7/site-packages/tables/_comp_bzip2.so", 
    "lib/python2.7/site-packages/tables/_comp_lzo.so", 
    "lib/python2.7/site-packages/tables/_past.py", 
    "lib/python2.7/site-packages/tables/_past.pyc", 
    "lib/python2.7/site-packages/tables/array.py", 
    "lib/python2.7/site-packages/tables/array.pyc", 
    "lib/python2.7/site-packages/tables/atom.py", 
    "lib/python2.7/site-packages/tables/atom.pyc", 
    "lib/python2.7/site-packages/tables/attributeset.py", 
    "lib/python2.7/site-packages/tables/attributeset.pyc", 
    "lib/python2.7/site-packages/tables/carray.py", 
    "lib/python2.7/site-packages/tables/carray.pyc", 
    "lib/python2.7/site-packages/tables/conditions.py", 
    "lib/python2.7/site-packages/tables/conditions.pyc", 
    "lib/python2.7/site-packages/tables/description.py", 
    "lib/python2.7/site-packages/tables/description.pyc", 
    "lib/python2.7/site-packages/tables/earray.py", 
    "lib/python2.7/site-packages/tables/earray.pyc", 
    "lib/python2.7/site-packages/tables/exceptions.py", 
    "lib/python2.7/site-packages/tables/exceptions.pyc", 
    "lib/python2.7/site-packages/tables/expression.py", 
    "lib/python2.7/site-packages/tables/expression.pyc", 
    "lib/python2.7/site-packages/tables/file.py", 
    "lib/python2.7/site-packages/tables/file.pyc", 
    "lib/python2.7/site-packages/tables/filters.py", 
    "lib/python2.7/site-packages/tables/filters.pyc", 
    "lib/python2.7/site-packages/tables/flavor.py", 
    "lib/python2.7/site-packages/tables/flavor.pyc", 
    "lib/python2.7/site-packages/tables/group.py", 
    "lib/python2.7/site-packages/tables/group.pyc", 
    "lib/python2.7/site-packages/tables/hdf5Extension.py", 
    "lib/python2.7/site-packages/tables/hdf5Extension.pyc", 
    "lib/python2.7/site-packages/tables/hdf5extension.so", 
    "lib/python2.7/site-packages/tables/idxutils.py", 
    "lib/python2.7/site-packages/tables/idxutils.pyc", 
    "lib/python2.7/site-packages/tables/index.py", 
    "lib/python2.7/site-packages/tables/index.pyc", 
    "lib/python2.7/site-packages/tables/indexes.py", 
    "lib/python2.7/site-packages/tables/indexes.pyc", 
    "lib/python2.7/site-packages/tables/indexesExtension.py", 
    "lib/python2.7/site-packages/tables/indexesExtension.pyc", 
    "lib/python2.7/site-packages/tables/indexesextension.so", 
    "lib/python2.7/site-packages/tables/leaf.py", 
    "lib/python2.7/site-packages/tables/leaf.pyc", 
    "lib/python2.7/site-packages/tables/link.py", 
    "lib/python2.7/site-packages/tables/link.pyc", 
    "lib/python2.7/site-packages/tables/linkExtension.py", 
    "lib/python2.7/site-packages/tables/linkExtension.pyc", 
    "lib/python2.7/site-packages/tables/linkextension.so", 
    "lib/python2.7/site-packages/tables/lrucacheExtension.py", 
    "lib/python2.7/site-packages/tables/lrucacheExtension.pyc", 
    "lib/python2.7/site-packages/tables/lrucacheextension.so", 
    "lib/python2.7/site-packages/tables/misc/__init__.py", 
    "lib/python2.7/site-packages/tables/misc/__init__.pyc", 
    "lib/python2.7/site-packages/tables/misc/enum.py", 
    "lib/python2.7/site-packages/tables/misc/enum.pyc", 
    "lib/python2.7/site-packages/tables/misc/proxydict.py", 
    "lib/python2.7/site-packages/tables/misc/proxydict.pyc", 
    "lib/python2.7/site-packages/tables/node.py", 
    "lib/python2.7/site-packages/tables/node.pyc", 
    "lib/python2.7/site-packages/tables/nodes/__init__.py", 
    "lib/python2.7/site-packages/tables/nodes/__init__.pyc", 
    "lib/python2.7/site-packages/tables/nodes/filenode.py", 
    "lib/python2.7/site-packages/tables/nodes/filenode.pyc", 
    "lib/python2.7/site-packages/tables/nodes/tests/__init__.py", 
    "lib/python2.7/site-packages/tables/nodes/tests/__init__.pyc", 
    "lib/python2.7/site-packages/tables/nodes/tests/test_filenode.dat", 
    "lib/python2.7/site-packages/tables/nodes/tests/test_filenode.py", 
    "lib/python2.7/site-packages/tables/nodes/tests/test_filenode.pyc", 
    "lib/python2.7/site-packages/tables/nodes/tests/test_filenode.xbm", 
    "lib/python2.7/site-packages/tables/nodes/tests/test_filenode_v1.h5", 
    "lib/python2.7/site-packages/tables/parameters.py", 
    "lib/python2.7/site-packages/tables/parameters.pyc", 
    "lib/python2.7/site-packages/tables/path.py", 
    "lib/python2.7/site-packages/tables/path.pyc", 
    "lib/python2.7/site-packages/tables/registry.py", 
    "lib/python2.7/site-packages/tables/registry.pyc", 
    "lib/python2.7/site-packages/tables/req_versions.py", 
    "lib/python2.7/site-packages/tables/req_versions.pyc", 
    "lib/python2.7/site-packages/tables/scripts/__init__.py", 
    "lib/python2.7/site-packages/tables/scripts/__init__.pyc", 
    "lib/python2.7/site-packages/tables/scripts/pt2to3.py", 
    "lib/python2.7/site-packages/tables/scripts/pt2to3.pyc", 
    "lib/python2.7/site-packages/tables/scripts/ptdump.py", 
    "lib/python2.7/site-packages/tables/scripts/ptdump.pyc", 
    "lib/python2.7/site-packages/tables/scripts/ptrepack.py", 
    "lib/python2.7/site-packages/tables/scripts/ptrepack.pyc", 
    "lib/python2.7/site-packages/tables/scripts/pttree.py", 
    "lib/python2.7/site-packages/tables/scripts/pttree.pyc", 
    "lib/python2.7/site-packages/tables/table.py", 
    "lib/python2.7/site-packages/tables/table.pyc", 
    "lib/python2.7/site-packages/tables/tableExtension.py", 
    "lib/python2.7/site-packages/tables/tableExtension.pyc", 
    "lib/python2.7/site-packages/tables/tableextension.so", 
    "lib/python2.7/site-packages/tables/tests/Table2_1_lzo_nrv2e_shuffle.h5", 
    "lib/python2.7/site-packages/tables/tests/Tables_lzo1.h5", 
    "lib/python2.7/site-packages/tables/tests/Tables_lzo1_shuffle.h5", 
    "lib/python2.7/site-packages/tables/tests/Tables_lzo2.h5", 
    "lib/python2.7/site-packages/tables/tests/Tables_lzo2_shuffle.h5", 
    "lib/python2.7/site-packages/tables/tests/__init__.py", 
    "lib/python2.7/site-packages/tables/tests/__init__.pyc", 
    "lib/python2.7/site-packages/tables/tests/array_mdatom.h5", 
    "lib/python2.7/site-packages/tables/tests/attr-u16.h5", 
    "lib/python2.7/site-packages/tables/tests/blosc_bigendian.h5", 
    "lib/python2.7/site-packages/tables/tests/bug-idx.h5", 
    "lib/python2.7/site-packages/tables/tests/check_leaks.py", 
    "lib/python2.7/site-packages/tables/tests/check_leaks.pyc", 
    "lib/python2.7/site-packages/tables/tests/common.py", 
    "lib/python2.7/site-packages/tables/tests/common.pyc", 
    "lib/python2.7/site-packages/tables/tests/create_backcompat_indexes.py", 
    "lib/python2.7/site-packages/tables/tests/create_backcompat_indexes.pyc", 
    "lib/python2.7/site-packages/tables/tests/elink.h5", 
    "lib/python2.7/site-packages/tables/tests/elink2.h5", 
    "lib/python2.7/site-packages/tables/tests/ex-noattr.h5", 
    "lib/python2.7/site-packages/tables/tests/flavored_vlarrays-format1.6.h5", 
    "lib/python2.7/site-packages/tables/tests/float.h5", 
    "lib/python2.7/site-packages/tables/tests/idx-std-1.x.h5", 
    "lib/python2.7/site-packages/tables/tests/indexes_2_0.h5", 
    "lib/python2.7/site-packages/tables/tests/indexes_2_1.h5", 
    "lib/python2.7/site-packages/tables/tests/issue_368.h5", 
    "lib/python2.7/site-packages/tables/tests/matlab_file.mat", 
    "lib/python2.7/site-packages/tables/tests/nested-type-with-gaps.h5", 
    "lib/python2.7/site-packages/tables/tests/non-chunked-table.h5", 
    "lib/python2.7/site-packages/tables/tests/oldflavor_numeric.h5", 
    "lib/python2.7/site-packages/tables/tests/python2.h5", 
    "lib/python2.7/site-packages/tables/tests/python3.h5", 
    "lib/python2.7/site-packages/tables/tests/scalar.h5", 
    "lib/python2.7/site-packages/tables/tests/slink.h5", 
    "lib/python2.7/site-packages/tables/tests/smpl_SDSextendible.h5", 
    "lib/python2.7/site-packages/tables/tests/smpl_compound_chunked.h5", 
    "lib/python2.7/site-packages/tables/tests/smpl_enum.h5", 
    "lib/python2.7/site-packages/tables/tests/smpl_f64be.h5", 
    "lib/python2.7/site-packages/tables/tests/smpl_f64le.h5", 
    "lib/python2.7/site-packages/tables/tests/smpl_i32be.h5", 
    "lib/python2.7/site-packages/tables/tests/smpl_i32le.h5", 
    "lib/python2.7/site-packages/tables/tests/smpl_i64be.h5", 
    "lib/python2.7/site-packages/tables/tests/smpl_i64le.h5", 
    "lib/python2.7/site-packages/tables/tests/smpl_unsupptype.h5", 
    "lib/python2.7/site-packages/tables/tests/test_all.py", 
    "lib/python2.7/site-packages/tables/tests/test_all.pyc", 
    "lib/python2.7/site-packages/tables/tests/test_array.py", 
    "lib/python2.7/site-packages/tables/tests/test_array.pyc", 
    "lib/python2.7/site-packages/tables/tests/test_attributes.py", 
    "lib/python2.7/site-packages/tables/tests/test_attributes.pyc", 
    "lib/python2.7/site-packages/tables/tests/test_aux.py", 
    "lib/python2.7/site-packages/tables/tests/test_aux.pyc", 
    "lib/python2.7/site-packages/tables/tests/test_backcompat.py", 
    "lib/python2.7/site-packages/tables/tests/test_backcompat.pyc", 
    "lib/python2.7/site-packages/tables/tests/test_basics.py", 
    "lib/python2.7/site-packages/tables/tests/test_basics.pyc", 
    "lib/python2.7/site-packages/tables/tests/test_carray.py", 
    "lib/python2.7/site-packages/tables/tests/test_carray.pyc", 
    "lib/python2.7/site-packages/tables/tests/test_create.py", 
    "lib/python2.7/site-packages/tables/tests/test_create.pyc", 
    "lib/python2.7/site-packages/tables/tests/test_do_undo.py", 
    "lib/python2.7/site-packages/tables/tests/test_do_undo.pyc", 
    "lib/python2.7/site-packages/tables/tests/test_earray.py", 
    "lib/python2.7/site-packages/tables/tests/test_earray.pyc", 
    "lib/python2.7/site-packages/tables/tests/test_enum.py", 
    "lib/python2.7/site-packages/tables/tests/test_enum.pyc", 
    "lib/python2.7/site-packages/tables/tests/test_expression.py", 
    "lib/python2.7/site-packages/tables/tests/test_expression.pyc", 
    "lib/python2.7/site-packages/tables/tests/test_garbage.py", 
    "lib/python2.7/site-packages/tables/tests/test_garbage.pyc", 
    "lib/python2.7/site-packages/tables/tests/test_hdf5compat.py", 
    "lib/python2.7/site-packages/tables/tests/test_hdf5compat.pyc", 
    "lib/python2.7/site-packages/tables/tests/test_index_backcompat.py", 
    "lib/python2.7/site-packages/tables/tests/test_index_backcompat.pyc", 
    "lib/python2.7/site-packages/tables/tests/test_indexes.py", 
    "lib/python2.7/site-packages/tables/tests/test_indexes.pyc", 
    "lib/python2.7/site-packages/tables/tests/test_indexvalues.py", 
    "lib/python2.7/site-packages/tables/tests/test_indexvalues.pyc", 
    "lib/python2.7/site-packages/tables/tests/test_links.py", 
    "lib/python2.7/site-packages/tables/tests/test_links.pyc", 
    "lib/python2.7/site-packages/tables/tests/test_lists.py", 
    "lib/python2.7/site-packages/tables/tests/test_lists.pyc", 
    "lib/python2.7/site-packages/tables/tests/test_nestedtypes.py", 
    "lib/python2.7/site-packages/tables/tests/test_nestedtypes.pyc", 
    "lib/python2.7/site-packages/tables/tests/test_numpy.py", 
    "lib/python2.7/site-packages/tables/tests/test_numpy.pyc", 
    "lib/python2.7/site-packages/tables/tests/test_queries.py", 
    "lib/python2.7/site-packages/tables/tests/test_queries.pyc", 
    "lib/python2.7/site-packages/tables/tests/test_szip.h5", 
    "lib/python2.7/site-packages/tables/tests/test_tables.py", 
    "lib/python2.7/site-packages/tables/tests/test_tables.pyc", 
    "lib/python2.7/site-packages/tables/tests/test_tablesMD.py", 
    "lib/python2.7/site-packages/tables/tests/test_tablesMD.pyc", 
    "lib/python2.7/site-packages/tables/tests/test_timetype.py", 
    "lib/python2.7/site-packages/tables/tests/test_timetype.pyc", 
    "lib/python2.7/site-packages/tables/tests/test_tree.py", 
    "lib/python2.7/site-packages/tables/tests/test_tree.pyc", 
    "lib/python2.7/site-packages/tables/tests/test_types.py", 
    "lib/python2.7/site-packages/tables/tests/test_types.pyc", 
    "lib/python2.7/site-packages/tables/tests/test_vlarray.py", 
    "lib/python2.7/site-packages/tables/tests/test_vlarray.pyc", 
    "lib/python2.7/site-packages/tables/tests/time-table-vlarray-1_x.h5", 
    "lib/python2.7/site-packages/tables/tests/times-nested-be.h5", 
    "lib/python2.7/site-packages/tables/tests/vlstr_attr.h5", 
    "lib/python2.7/site-packages/tables/tests/vlunicode_endian.h5", 
    "lib/python2.7/site-packages/tables/tests/zerodim-attrs-1.3.h5", 
    "lib/python2.7/site-packages/tables/tests/zerodim-attrs-1.4.h5", 
    "lib/python2.7/site-packages/tables/undoredo.py", 
    "lib/python2.7/site-packages/tables/undoredo.pyc", 
    "lib/python2.7/site-packages/tables/unimplemented.py", 
    "lib/python2.7/site-packages/tables/unimplemented.pyc", 
    "lib/python2.7/site-packages/tables/utils.py", 
    "lib/python2.7/site-packages/tables/utils.pyc", 
    "lib/python2.7/site-packages/tables/utilsExtension.py", 
    "lib/python2.7/site-packages/tables/utilsExtension.pyc", 
    "lib/python2.7/site-packages/tables/utilsextension.so", 
    "lib/python2.7/site-packages/tables/vlarray.py", 
    "lib/python2.7/site-packages/tables/vlarray.pyc"
  ], 
  "license": "BSD", 
  "link": {
    "source": "/ampa/stephanie/miniconda2/pkgs/pytables-3.2.2-np110py27_0", 
    "type": "hard-link"
  }, 
  "md5": "c8849e48db05dec202148b0fad800e4e", 
  "name": "pytables", 
  "platform": "linux", 
  "requires": [], 
  "size": 3532240, 
  "subdir": "linux-64", 
  "ucs": 4, 
  "url": "https://repo.continuum.io/pkgs/free/linux-64/pytables-3.2.2-np110py27_0.tar.bz2", 
  "version": "3.2.2"
}