{
  "arch": "x86_64", 
  "build": "py27_1", 
  "build_number": 1, 
  "channel": "https://repo.continuum.io/pkgs/free/linux-64/", 
  "date": "2015-09-24", 
  "depends": [
    "python 2.7*"
  ], 
  "files": [
    "bin/wheel", 
    "lib/python2.7/site-packages/wheel-0.26.0-py2.7.egg-info/PKG-INFO", 
    "lib/python2.7/site-packages/wheel-0.26.0-py2.7.egg-info/SOURCES.txt", 
    "lib/python2.7/site-packages/wheel-0.26.0-py2.7.egg-info/dependency_links.txt", 
    "lib/python2.7/site-packages/wheel-0.26.0-py2.7.egg-info/entry_points.txt", 
    "lib/python2.7/site-packages/wheel-0.26.0-py2.7.egg-info/not-zip-safe", 
    "lib/python2.7/site-packages/wheel-0.26.0-py2.7.egg-info/requires.txt", 
    "lib/python2.7/site-packages/wheel-0.26.0-py2.7.egg-info/top_level.txt", 
    "lib/python2.7/site-packages/wheel/__init__.py", 
    "lib/python2.7/site-packages/wheel/__init__.pyc", 
    "lib/python2.7/site-packages/wheel/__main__.py", 
    "lib/python2.7/site-packages/wheel/__main__.pyc", 
    "lib/python2.7/site-packages/wheel/archive.py", 
    "lib/python2.7/site-packages/wheel/archive.pyc", 
    "lib/python2.7/site-packages/wheel/bdist_wheel.py", 
    "lib/python2.7/site-packages/wheel/bdist_wheel.pyc", 
    "lib/python2.7/site-packages/wheel/decorator.py", 
    "lib/python2.7/site-packages/wheel/decorator.pyc", 
    "lib/python2.7/site-packages/wheel/egg2wheel.py", 
    "lib/python2.7/site-packages/wheel/egg2wheel.pyc", 
    "lib/python2.7/site-packages/wheel/eggnames.txt", 
    "lib/python2.7/site-packages/wheel/install.py", 
    "lib/python2.7/site-packages/wheel/install.pyc", 
    "lib/python2.7/site-packages/wheel/metadata.py", 
    "lib/python2.7/site-packages/wheel/metadata.pyc", 
    "lib/python2.7/site-packages/wheel/paths.py", 
    "lib/python2.7/site-packages/wheel/paths.pyc", 
    "lib/python2.7/site-packages/wheel/pep425tags.py", 
    "lib/python2.7/site-packages/wheel/pep425tags.pyc", 
    "lib/python2.7/site-packages/wheel/pkginfo.py", 
    "lib/python2.7/site-packages/wheel/pkginfo.pyc", 
    "lib/python2.7/site-packages/wheel/signatures/__init__.py", 
    "lib/python2.7/site-packages/wheel/signatures/__init__.pyc", 
    "lib/python2.7/site-packages/wheel/signatures/djbec.py", 
    "lib/python2.7/site-packages/wheel/signatures/djbec.pyc", 
    "lib/python2.7/site-packages/wheel/signatures/ed25519py.py", 
    "lib/python2.7/site-packages/wheel/signatures/ed25519py.pyc", 
    "lib/python2.7/site-packages/wheel/signatures/keys.py", 
    "lib/python2.7/site-packages/wheel/signatures/keys.pyc", 
    "lib/python2.7/site-packages/wheel/test/__init__.py", 
    "lib/python2.7/site-packages/wheel/test/__init__.pyc", 
    "lib/python2.7/site-packages/wheel/test/complex-dist/complexdist/__init__.py", 
    "lib/python2.7/site-packages/wheel/test/complex-dist/complexdist/__init__.pyc", 
    "lib/python2.7/site-packages/wheel/test/complex-dist/setup.py", 
    "lib/python2.7/site-packages/wheel/test/complex-dist/setup.pyc", 
    "lib/python2.7/site-packages/wheel/test/headers.dist/header.h", 
    "lib/python2.7/site-packages/wheel/test/headers.dist/headersdist.py", 
    "lib/python2.7/site-packages/wheel/test/headers.dist/headersdist.pyc", 
    "lib/python2.7/site-packages/wheel/test/headers.dist/setup.py", 
    "lib/python2.7/site-packages/wheel/test/headers.dist/setup.pyc", 
    "lib/python2.7/site-packages/wheel/test/pydist-schema.json", 
    "lib/python2.7/site-packages/wheel/test/simple.dist/setup.py", 
    "lib/python2.7/site-packages/wheel/test/simple.dist/setup.pyc", 
    "lib/python2.7/site-packages/wheel/test/simple.dist/simpledist/__init__.py", 
    "lib/python2.7/site-packages/wheel/test/simple.dist/simpledist/__init__.pyc", 
    "lib/python2.7/site-packages/wheel/test/test-1.0-py2.py3-none-win32.whl", 
    "lib/python2.7/site-packages/wheel/test/test_basic.py", 
    "lib/python2.7/site-packages/wheel/test/test_basic.pyc", 
    "lib/python2.7/site-packages/wheel/test/test_install.py", 
    "lib/python2.7/site-packages/wheel/test/test_install.pyc", 
    "lib/python2.7/site-packages/wheel/test/test_keys.py", 
    "lib/python2.7/site-packages/wheel/test/test_keys.pyc", 
    "lib/python2.7/site-packages/wheel/test/test_paths.py", 
    "lib/python2.7/site-packages/wheel/test/test_paths.pyc", 
    "lib/python2.7/site-packages/wheel/test/test_ranking.py", 
    "lib/python2.7/site-packages/wheel/test/test_ranking.pyc", 
    "lib/python2.7/site-packages/wheel/test/test_signatures.py", 
    "lib/python2.7/site-packages/wheel/test/test_signatures.pyc", 
    "lib/python2.7/site-packages/wheel/test/test_tagopt.py", 
    "lib/python2.7/site-packages/wheel/test/test_tagopt.pyc", 
    "lib/python2.7/site-packages/wheel/test/test_tool.py", 
    "lib/python2.7/site-packages/wheel/test/test_tool.pyc", 
    "lib/python2.7/site-packages/wheel/test/test_wheelfile.py", 
    "lib/python2.7/site-packages/wheel/test/test_wheelfile.pyc", 
    "lib/python2.7/site-packages/wheel/tool/__init__.py", 
    "lib/python2.7/site-packages/wheel/tool/__init__.pyc", 
    "lib/python2.7/site-packages/wheel/util.py", 
    "lib/python2.7/site-packages/wheel/util.pyc", 
    "lib/python2.7/site-packages/wheel/wininst2wheel.py", 
    "lib/python2.7/site-packages/wheel/wininst2wheel.pyc"
  ], 
  "license": "MIT", 
  "link": {
    "source": "/ampa/stephanie/miniconda2/pkgs/wheel-0.26.0-py27_1", 
    "type": "hard-link"
  }, 
  "md5": "831d08e31a80c2f4c01d456c018c6ee1", 
  "name": "wheel", 
  "platform": "linux", 
  "requires": [], 
  "size": 77360, 
  "subdir": "linux-64", 
  "url": "https://repo.continuum.io/pkgs/free/linux-64/wheel-0.26.0-py27_1.tar.bz2", 
  "version": "0.26.0"
}