{
  "arch": "x86_64", 
  "build": "py27_0", 
  "build_number": 0, 
  "depends": [
    "python 2.7*"
  ], 
  "license": "PSF or ZPL", 
  "license_family": "PSF", 
  "name": "setuptools", 
  "platform": "linux", 
  "subdir": "linux-64", 
  "version": "19.6.2"
}