{
  "arch": "x86_64", 
  "build": "0", 
  "build_number": 0, 
  "depends": [], 
  "license": "Apache-style (http://www.openssl.org/source/license.html)", 
  "license_family": "Apache", 
  "name": "openssl", 
  "platform": "linux", 
  "requires": [], 
  "subdir": "linux-64", 
  "version": "1.0.2f"
}