{
  "arch": "x86_64", 
  "build": "py27_0", 
  "build_number": 0, 
  "depends": [
    "python 2.7*", 
    "setuptools", 
    "wheel 0.24.0"
  ], 
  "license": "MIT", 
  "name": "pip", 
  "platform": "linux", 
  "requires": [
    "python 2.7", 
    "setuptools 18.1", 
    "wheel 0.24.0"
  ], 
  "subdir": "linux-64", 
  "ucs": 4, 
  "version": "7.1.2"
}