{
  "arch": "x86_64", 
  "build": "np110py27_cuda70_0", 
  "build_number": 0, 
  "depends": [
    "decorator >=3.2.0", 
    "numpy", 
    "python 2.7*", 
    "pytools"
  ], 
  "license": "MIT License", 
  "name": "pycuda", 
  "platform": "linux", 
  "subdir": "linux-64", 
  "version": "2015.1.3"
}