{
  "_url": "https://conda.binstar.org/neurokernel/channel/ubuntu1404/noarch/", 
  "info": {
    "arch": null, 
    "default_numpy_version": "1.7", 
    "default_python_version": "2.7", 
    "platform": null, 
    "subdir": "noarch"
  }, 
  "packages": {}
}