{
  "arch": "x86_64", 
  "build": "py27_0", 
  "build_number": 0, 
  "depends": [
    "python 2.7*"
  ], 
  "files": [
    "bin/activate", 
    "bin/conda-env", 
    "bin/deactivate", 
    "lib/python2.7/site-packages/conda_env-2.4.5-py2.7.egg-info", 
    "lib/python2.7/site-packages/conda_env/__init__.py", 
    "lib/python2.7/site-packages/conda_env/__init__.pyc", 
    "lib/python2.7/site-packages/conda_env/cli/__init__.py", 
    "lib/python2.7/site-packages/conda_env/cli/__init__.pyc", 
    "lib/python2.7/site-packages/conda_env/cli/main.py", 
    "lib/python2.7/site-packages/conda_env/cli/main.pyc", 
    "lib/python2.7/site-packages/conda_env/cli/main_attach.py", 
    "lib/python2.7/site-packages/conda_env/cli/main_attach.pyc", 
    "lib/python2.7/site-packages/conda_env/cli/main_create.py", 
    "lib/python2.7/site-packages/conda_env/cli/main_create.pyc", 
    "lib/python2.7/site-packages/conda_env/cli/main_export.py", 
    "lib/python2.7/site-packages/conda_env/cli/main_export.pyc", 
    "lib/python2.7/site-packages/conda_env/cli/main_list.py", 
    "lib/python2.7/site-packages/conda_env/cli/main_list.pyc", 
    "lib/python2.7/site-packages/conda_env/cli/main_remove.py", 
    "lib/python2.7/site-packages/conda_env/cli/main_remove.pyc", 
    "lib/python2.7/site-packages/conda_env/cli/main_update.py", 
    "lib/python2.7/site-packages/conda_env/cli/main_update.pyc", 
    "lib/python2.7/site-packages/conda_env/cli/main_upload.py", 
    "lib/python2.7/site-packages/conda_env/cli/main_upload.pyc", 
    "lib/python2.7/site-packages/conda_env/compat.py", 
    "lib/python2.7/site-packages/conda_env/compat.pyc", 
    "lib/python2.7/site-packages/conda_env/env.py", 
    "lib/python2.7/site-packages/conda_env/env.pyc", 
    "lib/python2.7/site-packages/conda_env/exceptions.py", 
    "lib/python2.7/site-packages/conda_env/exceptions.pyc", 
    "lib/python2.7/site-packages/conda_env/installers/__init__.py", 
    "lib/python2.7/site-packages/conda_env/installers/__init__.pyc", 
    "lib/python2.7/site-packages/conda_env/installers/base.py", 
    "lib/python2.7/site-packages/conda_env/installers/base.pyc", 
    "lib/python2.7/site-packages/conda_env/installers/conda.py", 
    "lib/python2.7/site-packages/conda_env/installers/conda.pyc", 
    "lib/python2.7/site-packages/conda_env/installers/pip.py", 
    "lib/python2.7/site-packages/conda_env/installers/pip.pyc", 
    "lib/python2.7/site-packages/conda_env/specs/__init__.py", 
    "lib/python2.7/site-packages/conda_env/specs/__init__.pyc", 
    "lib/python2.7/site-packages/conda_env/specs/binstar.py", 
    "lib/python2.7/site-packages/conda_env/specs/binstar.pyc", 
    "lib/python2.7/site-packages/conda_env/specs/notebook.py", 
    "lib/python2.7/site-packages/conda_env/specs/notebook.pyc", 
    "lib/python2.7/site-packages/conda_env/specs/requirements.py", 
    "lib/python2.7/site-packages/conda_env/specs/requirements.pyc", 
    "lib/python2.7/site-packages/conda_env/specs/yaml_file.py", 
    "lib/python2.7/site-packages/conda_env/specs/yaml_file.pyc", 
    "lib/python2.7/site-packages/conda_env/utils/__init__.py", 
    "lib/python2.7/site-packages/conda_env/utils/__init__.pyc", 
    "lib/python2.7/site-packages/conda_env/utils/notebooks.py", 
    "lib/python2.7/site-packages/conda_env/utils/notebooks.pyc", 
    "lib/python2.7/site-packages/conda_env/utils/uploader.py", 
    "lib/python2.7/site-packages/conda_env/utils/uploader.pyc", 
    "lib/python2.7/site-packages/conda_env/yaml.py", 
    "lib/python2.7/site-packages/conda_env/yaml.pyc"
  ], 
  "license": "BSD", 
  "link": {
    "source": "/ampa/stephanie/miniconda2/pkgs/conda-env-2.4.5-py27_0", 
    "type": "hard-link"
  }, 
  "name": "conda-env", 
  "platform": "linux", 
  "requires": [
    "python 2.7"
  ], 
  "subdir": "linux-64", 
  "ucs": 4, 
  "url": "https://repo.continuum.io/pkgs/free/linux-64/conda-env-2.4.5-py27_0.tar.bz2", 
  "version": "2.4.5"
}